o convex_0
v -0.603290 -0.080777 -0.071002
v -0.880931 -0.094668 -0.265400
v -0.880931 -0.066913 -0.265400
v -0.631057 -0.094668 -0.209855
v -0.631057 0.002515 -0.168201
v -0.700460 -0.025281 -0.071002
v -0.686591 -0.136341 -0.098784
v -0.631057 -0.136341 -0.168201
v -0.769863 -0.053049 -0.265400
v -0.700460 -0.108545 -0.071002
v -0.686591 0.002515 -0.098784
v -0.589392 -0.025281 -0.098784
v -0.797630 -0.108545 -0.265400
v -0.755966 -0.039158 -0.112694
v -0.867034 -0.053049 -0.265400
v -0.603290 -0.108545 -0.182073
v -0.617159 -0.039158 -0.195964
v -0.867034 -0.108545 -0.251509
v -0.603290 -0.108545 -0.084893
v -0.700460 0.002515 -0.154329
v -0.880931 -0.094668 -0.251509
v -0.742096 -0.011390 -0.126547
v -0.658824 -0.108545 -0.223708
v -0.728227 -0.080777 -0.084893
v -0.686591 -0.136341 -0.168201
v -0.617159 -0.136341 -0.140438
v -0.880931 -0.066913 -0.251509
v -0.603290 -0.039158 -0.182073
v -0.658824 0.002515 -0.098784
v -0.644926 -0.136341 -0.098784
v -0.589392 -0.053049 -0.126547
v -0.672693 -0.025281 -0.071002
v -0.658824 -0.066913 -0.223708
v -0.658824 -0.122436 -0.209855
v -0.867034 -0.108545 -0.265400
v -0.589392 -0.025281 -0.126547
v -0.631057 -0.025281 -0.195964
v -0.700460 -0.136341 -0.112694
v -0.603290 -0.094668 -0.071002
v -0.769863 -0.080777 -0.265400
v -0.672693 0.002515 -0.168201
v -0.631057 0.002515 -0.140438
v -0.755966 -0.080777 -0.112694
v -0.728227 -0.039158 -0.084893
v -0.589392 -0.053049 -0.098784
v -0.867034 -0.053049 -0.251509
v -0.658824 -0.108545 -0.071002
v -0.700460 -0.136341 -0.154329
v -0.617159 -0.122436 -0.182073
v -0.714358 -0.108545 -0.084893
v -0.700460 0.002515 -0.112694
v -0.700460 -0.011390 -0.084893
v -0.617159 -0.011390 -0.168201
v -0.617159 -0.136341 -0.154329
v -0.631057 -0.066913 -0.209855
v -0.644926 0.002515 -0.112694
v -0.658824 -0.011390 -0.084893
v -0.631057 -0.136341 -0.112694
f 30 26 58 
f 2 3 9 
f 1 6 10 
f 2 9 13 
f 9 3 15 
f 5 9 15 
f 16 4 17 
f 11 5 20 
f 3 2 21 
f 2 18 21 
f 4 16 23 
f 10 6 24 
f 8 7 25 
f 13 8 25 
f 7 8 26 
f 16 19 26 
f 15 3 27 
f 3 21 27 
f 21 14 27 
f 14 22 27 
f 16 17 28 
f 5 11 29 
f 11 6 29 
f 10 7 30 
f 7 26 30 
f 19 16 31 
f 16 28 31 
f 6 1 32 
f 1 12 32 
f 29 6 32 
f 9 17 33 
f 4 23 33 
f 23 9 33 
f 8 13 34 
f 13 23 34 
f 2 13 35 
f 18 2 35 
f 13 25 35 
f 5 12 36 
f 12 31 36 
f 31 28 36 
f 9 5 37 
f 17 9 37 
f 5 17 37 
f 25 7 38 
f 18 35 38 
f 1 10 39 
f 12 1 39 
f 30 19 39 
f 13 9 40 
f 9 23 40 
f 23 13 40 
f 5 15 41 
f 20 5 41 
f 15 20 41 
f 12 5 42 
f 5 29 42 
f 14 21 43 
f 24 14 43 
f 22 14 44 
f 24 6 44 
f 14 24 44 
f 31 12 45 
f 19 31 45 
f 12 39 45 
f 39 19 45 
f 20 15 46 
f 15 27 46 
f 27 22 46 
f 10 30 47 
f 39 10 47 
f 30 39 47 
f 35 25 48 
f 25 38 48 
f 38 35 48 
f 23 16 49 
f 8 34 49 
f 34 23 49 
f 7 10 50 
f 21 18 50 
f 10 24 50 
f 38 7 50 
f 18 38 50 
f 43 21 50 
f 24 43 50 
f 11 20 51 
f 22 11 51 
f 20 46 51 
f 46 22 51 
f 6 11 52 
f 11 22 52 
f 44 6 52 
f 22 44 52 
f 17 5 53 
f 28 17 53 
f 5 36 53 
f 36 28 53 
f 26 8 54 
f 16 26 54 
f 49 16 54 
f 8 49 54 
f 17 4 55 
f 4 33 55 
f 33 17 55 
f 29 12 56 
f 12 42 56 
f 42 29 56 
f 12 29 57 
f 32 12 57 
f 29 32 57 
f 26 19 58 
f 19 30 58 
o convex_1
v -0.339444 -0.053032 -0.209884
v -0.575449 -0.094680 -0.362577
v -0.575449 -0.053032 -0.362577
v -0.353342 -0.094680 -0.140452
v -0.575449 -0.053032 -0.307040
v -0.367211 -0.094680 -0.237652
v -0.353342 -0.053032 -0.140452
v -0.561551 -0.094680 -0.293145
v -0.283910 -0.094680 -0.140452
v -0.478250 -0.066918 -0.320914
v -0.283910 -0.053032 -0.154347
v -0.506017 -0.094680 -0.334809
v -0.422745 -0.053032 -0.279250
v -0.561551 -0.053032 -0.362577
v -0.283910 -0.094680 -0.154347
v -0.283910 -0.053032 -0.140452
v -0.436614 -0.094680 -0.293145
v -0.575449 -0.094680 -0.307040
v -0.561551 -0.066918 -0.293145
v -0.367211 -0.066918 -0.237652
v -0.561551 -0.094680 -0.362577
v -0.436614 -0.066918 -0.293145
v -0.506017 -0.053032 -0.334809
v -0.353342 -0.053032 -0.223779
v -0.478250 -0.080793 -0.320914
f 68 75 83 
f 59 61 63 
f 61 60 63 
f 62 60 64 
f 59 63 65 
f 60 62 66 
f 62 65 66 
f 62 64 67 
f 65 62 67 
f 64 59 69 
f 59 65 69 
f 64 60 70 
f 61 59 71 
f 60 61 72 
f 61 71 72 
f 67 64 73 
f 64 69 73 
f 69 67 73 
f 65 67 74 
f 69 65 74 
f 67 69 74 
f 64 70 75 
f 63 60 76 
f 66 63 76 
f 60 66 76 
f 65 63 77 
f 63 66 77 
f 66 65 77 
f 59 64 78 
f 64 75 78 
f 70 60 79 
f 60 72 79 
f 72 70 79 
f 75 68 80 
f 78 75 80 
f 68 70 81 
f 72 71 81 
f 70 72 81 
f 80 68 81 
f 71 80 81 
f 71 59 82 
f 59 78 82 
f 80 71 82 
f 78 80 82 
f 70 68 83 
f 75 70 83 
o convex_2
v -0.297723 -0.108560 -0.112621
v -0.061712 -0.053034 0.081717
v -0.075603 -0.025266 0.095581
v -0.145058 -0.080792 0.137281
v -0.339423 -0.053034 -0.140430
v -0.117303 -0.122455 0.012289
v -0.172840 -0.066918 -0.070975
v -0.186704 -0.011382 0.067853
v -0.089521 -0.122455 0.109472
v -0.186704 -0.025266 -0.043220
v -0.311614 -0.094676 -0.070975
v -0.228295 -0.122455 -0.001575
v -0.269941 -0.080792 -0.140430
v -0.214432 -0.039150 0.067853
v -0.061712 -0.053034 0.053935
v -0.117303 -0.039150 0.137281
v -0.061712 -0.094676 0.053935
v -0.158949 -0.011382 0.012289
v -0.283832 -0.053034 -0.140430
v -0.172840 -0.108560 -0.057084
v -0.214432 -0.080792 0.067853
v -0.339423 -0.094676 -0.140430
v -0.311614 -0.053034 -0.070975
v -0.297723 -0.039150 -0.112621
v -0.145058 -0.039150 0.137281
v -0.117303 -0.122455 0.109472
v -0.103385 -0.094676 -0.001575
v -0.186704 -0.122455 -0.043220
v -0.117303 -0.053034 -0.015438
v -0.075603 -0.025266 0.067853
v -0.283832 -0.094676 -0.140430
v -0.061712 -0.108560 0.081717
v -0.103385 -0.025266 0.123390
v -0.200568 -0.011382 0.012289
v -0.339423 -0.066918 -0.112621
v -0.297723 -0.039150 -0.070975
v -0.256077 -0.053034 -0.126539
v -0.075603 -0.122455 0.067853
v -0.145058 -0.011382 0.053935
v -0.117303 -0.080792 0.137281
v -0.172840 -0.080792 -0.070975
v -0.256077 -0.053034 0.012289
v -0.339423 -0.094676 -0.126539
v -0.228295 -0.122455 -0.043220
v -0.269941 -0.039150 -0.112621
v -0.256077 -0.094676 -0.126539
v -0.269941 -0.108560 -0.112621
v -0.131140 -0.025266 0.123390
v -0.297723 -0.108560 -0.084866
v -0.339423 -0.053034 -0.126539
v -0.200568 -0.011382 0.040071
v -0.256077 -0.080792 0.012289
v -0.269941 -0.066918 -0.140430
v -0.061712 -0.108560 0.067853
v -0.103385 -0.066918 -0.001575
v -0.131140 -0.094676 -0.029329
v -0.339423 -0.080792 -0.112621
v -0.075603 -0.122455 0.095581
v -0.158949 -0.011382 0.067853
v -0.145058 -0.011382 0.026180
v -0.145058 -0.122455 -0.015438
v -0.242186 -0.108560 -0.098730
v -0.103385 -0.108560 0.012289
v -0.242186 -0.039150 -0.098730
f 120 128 147 
f 89 92 95 
f 86 85 98 
f 98 85 100 
f 96 88 102 
f 95 87 104 
f 94 95 104 
f 87 97 104 
f 88 96 105 
f 97 91 106 
f 102 88 107 
f 97 87 108 
f 91 97 108 
f 87 99 108 
f 92 87 109 
f 87 95 109 
f 95 92 109 
f 98 100 110 
f 89 95 111 
f 86 98 113 
f 93 101 113 
f 112 93 113 
f 98 112 113 
f 84 105 114 
f 105 96 114 
f 100 85 115 
f 85 86 116 
f 108 99 116 
f 115 85 116 
f 91 101 117 
f 101 107 117 
f 88 105 118 
f 106 91 119 
f 107 88 119 
f 117 107 119 
f 112 90 120 
f 93 112 120 
f 92 89 121 
f 101 91 122 
f 86 113 122 
f 87 92 123 
f 99 87 123 
f 116 99 123 
f 115 116 123 
f 96 90 124 
f 104 97 125 
f 97 106 125 
f 106 118 125 
f 105 84 126 
f 118 105 126 
f 95 84 127 
f 84 111 127 
f 111 95 127 
f 101 93 128 
f 107 101 128 
f 102 107 128 
f 120 102 128 
f 114 96 129 
f 96 124 129 
f 124 103 129 
f 111 84 130 
f 84 114 130 
f 114 129 130 
f 91 108 131 
f 116 91 131 
f 108 116 131 
f 84 95 132 
f 95 94 132 
f 126 84 132 
f 94 126 132 
f 88 118 133 
f 118 106 133 
f 119 88 133 
f 106 119 133 
f 91 117 134 
f 119 91 134 
f 117 119 134 
f 94 104 135 
f 104 125 135 
f 125 118 135 
f 90 96 136 
f 96 102 136 
f 120 90 136 
f 102 120 136 
f 100 115 137 
f 115 121 137 
f 98 110 138 
f 90 112 138 
f 112 98 138 
f 124 90 139 
f 103 124 139 
f 90 138 139 
f 138 110 139 
f 126 94 140 
f 118 126 140 
f 94 135 140 
f 135 118 140 
f 92 121 141 
f 121 115 141 
f 123 92 141 
f 115 123 141 
f 116 86 142 
f 91 116 142 
f 122 91 142 
f 86 122 142 
f 113 101 143 
f 101 122 143 
f 122 113 143 
f 89 111 144 
f 111 103 144 
f 103 139 144 
f 103 111 145 
f 129 103 145 
f 111 130 145 
f 130 129 145 
f 110 100 146 
f 121 89 146 
f 100 137 146 
f 137 121 146 
f 139 110 146 
f 89 144 146 
f 144 139 146 
f 93 120 147 
f 128 93 147 
o convex_3
v -0.950388 -0.053027 -0.348705
v -0.797662 -0.066913 -0.376463
v -0.797662 -0.080799 -0.376463
v -0.811550 -0.066913 -0.265416
v -0.880946 -0.108570 -0.265416
v -0.936485 -0.094684 -0.418115
v -0.797662 -0.053027 -0.432010
v -0.797662 -0.094684 -0.432010
v -0.880946 -0.053027 -0.265416
v -0.825438 -0.108570 -0.265416
v -0.894835 -0.053027 -0.432010
v -0.950388 -0.094684 -0.334843
v -0.894835 -0.108570 -0.307069
v -0.825438 -0.053027 -0.265416
v -0.936485 -0.066913 -0.307069
v -0.950388 -0.066913 -0.390342
v -0.894835 -0.094684 -0.432010
v -0.811550 -0.094684 -0.265416
v -0.894835 -0.094684 -0.265416
v -0.936485 -0.053027 -0.404237
v -0.950388 -0.094684 -0.390342
v -0.797662 -0.053027 -0.390342
v -0.936485 -0.094684 -0.307069
v -0.936485 -0.066913 -0.418115
v -0.797662 -0.094684 -0.390342
v -0.894835 -0.066913 -0.265416
v -0.867088 -0.108570 -0.307069
v -0.936485 -0.053027 -0.320964
v -0.825438 -0.108570 -0.279311
v -0.950388 -0.053027 -0.376463
v -0.950388 -0.066913 -0.334843
v -0.894835 -0.108570 -0.293190
v -0.922596 -0.053027 -0.418115
f 171 167 180 
f 150 149 151 
f 149 150 154 
f 154 150 155 
f 152 151 156 
f 154 148 156 
f 151 152 157 
f 148 154 158 
f 154 155 158 
f 157 152 160 
f 156 151 161 
f 154 156 161 
f 159 148 163 
f 153 158 164 
f 158 155 164 
f 160 153 164 
f 155 160 164 
f 150 151 165 
f 151 157 165 
f 152 156 166 
f 148 158 167 
f 153 160 168 
f 160 159 168 
f 163 153 168 
f 159 163 168 
f 151 149 169 
f 149 154 169 
f 161 151 169 
f 154 161 169 
f 159 152 170 
f 162 159 170 
f 152 166 170 
f 166 162 170 
f 158 153 171 
f 153 163 171 
f 163 167 171 
f 155 150 172 
f 157 155 172 
f 150 165 172 
f 165 157 172 
f 156 162 173 
f 166 156 173 
f 162 166 173 
f 160 155 174 
f 157 160 174 
f 156 148 175 
f 148 162 175 
f 162 156 175 
f 155 157 176 
f 174 155 176 
f 157 174 176 
f 163 148 177 
f 148 167 177 
f 167 163 177 
f 148 159 178 
f 162 148 178 
f 159 162 178 
f 152 159 179 
f 160 152 179 
f 159 160 179 
f 167 158 180 
f 158 171 180 
o convex_4
v -0.589395 -0.066918 -0.376466
v -0.797647 -0.094680 -0.432027
v -0.797647 -0.094680 -0.376466
v -0.797647 -0.053032 -0.432027
v -0.603290 -0.053032 -0.320965
v -0.575521 -0.094680 -0.307057
v -0.617163 -0.094680 -0.390350
v -0.783730 -0.053032 -0.376466
v -0.575521 -0.053032 -0.362618
v -0.700425 -0.066918 -0.418118
v -0.589395 -0.066918 -0.307057
v -0.575521 -0.094680 -0.362618
v -0.755961 -0.080793 -0.432027
v -0.797647 -0.066918 -0.376466
v -0.714320 -0.053032 -0.418118
v -0.575521 -0.053032 -0.320965
v -0.700425 -0.094680 -0.418118
v -0.589395 -0.094680 -0.307057
v -0.617163 -0.066918 -0.390350
v -0.755961 -0.066918 -0.432027
v -0.631058 -0.053032 -0.390350
v -0.797647 -0.053032 -0.390350
v -0.769857 -0.094680 -0.432027
v -0.575521 -0.066918 -0.307057
v -0.589395 -0.094680 -0.376466
v -0.783730 -0.053032 -0.432027
f 195 200 206 
f 182 183 184 
f 183 182 186 
f 186 182 187 
f 185 184 188 
f 184 185 189 
f 185 188 191 
f 186 187 192 
f 181 189 192 
f 189 186 192 
f 182 184 193 
f 184 183 194 
f 183 191 194 
f 191 188 194 
f 184 189 195 
f 189 185 196 
f 186 189 196 
f 185 191 196 
f 187 182 197 
f 190 187 197 
f 193 190 197 
f 183 186 198 
f 191 183 198 
f 186 191 198 
f 181 187 199 
f 189 181 199 
f 187 190 199 
f 190 195 199 
f 193 184 200 
f 190 193 200 
f 195 190 200 
f 195 189 201 
f 189 199 201 
f 199 195 201 
f 188 184 202 
f 184 194 202 
f 194 188 202 
f 182 193 203 
f 197 182 203 
f 193 197 203 
f 191 186 204 
f 186 196 204 
f 196 191 204 
f 187 181 205 
f 181 192 205 
f 192 187 205 
f 184 195 206 
f 200 184 206 
