# Blender MTL File: 'None'
# Material Count: 1

newmtl phong4.002
Ns 179.999996
Ka 0.500000 0.500000 0.500000
Kd 0.500000 0.500000 0.500000
Ks 1.000000 1.000000 1.000000
Ke 0.000000 0.000000 0.000000
Ni 1.450000
d 1.000000
illum 3
