# Blender MTL File: 'None'
# Material Count: 1

newmtl M_pipes
Ns 180.000044
Ka 1.000000 1.000000 1.000000
Kd 0.800000 0.800000 0.800000
Ks 1.000000 1.000000 1.000000
Ke 0.000000 0.000000 0.000000
Ni 1.450000
d 1.000000
illum 3
map_Bump /home/cris/Downloads/modular-pipes/source/PIPES/PipesNormal.tga
map_Kd /home/cris/Downloads/modular-pipes/source/PIPES/PipesColor.tga
